{
    "content":{
        "userName":"636",
        "businessName":"CRM Corp",
        "businessId":7,
        "id":"664",
        "type":null,
        "uniqueId":null
    },
    "status":"Success!"
}