{
    "cause":null,
    "message":"{\"errorIds\":[{\"errorCode\":\"E1000\",\"errorMessage\":\"Something went wrong. Please try again...\",\"severity\":\"ERROR\",\"hintType\":\"TEXT\",\"hints\":[]}]}",
    "suppressed":[],
    "localizedMessage":"{\"errorIds\":[{\"errorCode\":\"E1000\",\"errorMessage\":\"Something went wrong. Please try again...\",\"severity\":\"ERROR\",\"hintType\":\"TEXT\",\"hints\":[]}]}"
}