{
    "Hi there! Welcome to our insurance chatbot. Can you share your mobile number for me to assist you better?0,0":"9791635242",
    "Are you interested in any of the following products0,0,0,0,0,0":"Liability Insurance0,0,0,0,0,0,1",
    "Do you seek with any of the following Products0,0,0,0,0,0,1,0":"Product Liability Insurance0,0,0,0,0,0,1,0,1",
    "How much does Products compensation cost?0,0,0,0,0,0,1,0,1,0":"100usd",
    "How much would you like to cover for the Insurance0,0,0,0,0,0,1,0,1,0,0,0":"100usd",
    "Do you seek the following any Compensation Coverages0,0,0,0,0,0,1,0,1,0,0,0,0,0":"Workers Compensation Coverage B0,0,0,0,0,0,1,0,1,0,0,0,0,0,1"
}