{
    "Please share your full name.Also please avoid using any offensive words,numbers,or special characters0,0,0,0,0":"9095351325",
    "How can we help you today?(Type a number to select an option)0,0,0,0,0,0,0":"frank richard"
}