{
    "Hi there! Welcome to our insurance chatbot. Can you share your mobile number for me to assist you better?0,0":"000000000",
    "Can you please enter your name0,0,0,0,2,0":"sudha",
    "Okay great! can you give me your Email id0,0,0,0,2,0,0,0":"sudha@gmail.com"
}