<svg width="46" height="46" viewBox="0 0 46 46" fill="none" xmlns="http://www.w3.org/2000/svg">
<rect x="0.707107" y="23" width="31.5269" height="31.5269" rx="5.5" transform="rotate(-45 0.707107 23)" stroke="#216DB4"/>
<path d="M15 18.3438C15 17.7221 15.2469 17.126 15.6865 16.6865C16.126 16.2469 16.7221 16 17.3438 16H25.7812C26.4029 16 26.999 16.2469 27.4385 16.6865C27.8781 17.126 28.125 17.7221 28.125 18.3438V21.6578C27.9697 21.6358 27.8131 21.6248 27.6562 21.625H27.1875V18.3438C27.1875 17.9708 27.0393 17.6131 26.7756 17.3494C26.5119 17.0857 26.1542 16.9375 25.7812 16.9375H17.3438C16.9708 16.9375 16.6131 17.0857 16.3494 17.3494C16.0857 17.6131 15.9375 17.9708 15.9375 18.3438V26.7812C15.9375 27.1542 16.0857 27.5119 16.3494 27.7756C16.6131 28.0393 16.9708 28.1875 17.3438 28.1875H18.75V28.6562C18.75 28.8156 18.7612 28.9722 18.7828 29.125H17.3438C16.7221 29.125 16.126 28.8781 15.6865 28.4385C15.2469 27.999 15 27.4029 15 26.7812V18.3438ZM25.3125 21.1562C25.3125 21.2806 25.2631 21.3998 25.1752 21.4877C25.0873 21.5756 24.9681 21.625 24.8438 21.625H20.1562C20.0319 21.625 19.9127 21.5756 19.8248 21.4877C19.7369 21.3998 19.6875 21.2806 19.6875 21.1562C19.6875 21.0319 19.7369 20.9127 19.8248 20.8248C19.9127 20.7369 20.0319 20.6875 20.1562 20.6875H24.8438C24.9681 20.6875 25.0873 20.7369 25.1752 20.8248C25.2631 20.9127 25.3125 21.0319 25.3125 21.1562ZM17.8125 19.2812C17.8125 19.1569 17.8619 19.0377 17.9498 18.9498C18.0377 18.8619 18.1569 18.8125 18.2812 18.8125H24.8438C24.9681 18.8125 25.0873 18.8619 25.1752 18.9498C25.2631 19.0377 25.3125 19.1569 25.3125 19.2812C25.3125 19.4056 25.2631 19.5248 25.1752 19.6127C25.0873 19.7006 24.9681 19.75 24.8438 19.75H18.2812C18.1569 19.75 18.0377 19.7006 17.9498 19.6127C17.8619 19.5248 17.8125 19.4056 17.8125 19.2812ZM19.6875 24.9062C19.6875 24.2846 19.9344 23.6885 20.374 23.249C20.8135 22.8094 21.4096 22.5625 22.0312 22.5625H27.6562C28.2779 22.5625 28.874 22.8094 29.3135 23.249C29.7531 23.6885 30 24.2846 30 24.9062V28.6562C30 29.2779 29.7531 29.874 29.3135 30.3135C28.874 30.7531 28.2779 31 27.6562 31H22.0312C21.4096 31 20.8135 30.7531 20.374 30.3135C19.9344 29.874 19.6875 29.2779 19.6875 28.6562V24.9062ZM22.0312 23.5C21.702 23.4999 21.3831 23.6154 21.1303 23.8263C20.8774 24.0372 20.7065 24.3301 20.6475 24.6541L24.8438 27.1722L29.04 24.6541C28.981 24.3301 28.8101 24.0372 28.5572 23.8263C28.3044 23.6154 27.9855 23.4999 27.6562 23.5H22.0312ZM20.625 28.6562C20.625 29.0292 20.7732 29.3869 21.0369 29.6506C21.3006 29.9143 21.6583 30.0625 22.0312 30.0625H27.6562C28.0292 30.0625 28.3869 29.9143 28.6506 29.6506C28.9143 29.3869 29.0625 29.0292 29.0625 28.6562V25.7341L25.0847 28.1209C25.0119 28.1646 24.9286 28.1876 24.8438 28.1876C24.7589 28.1876 24.6756 28.1646 24.6028 28.1209L20.625 25.7341V28.6562Z" fill="#216DB4"/>
</svg>
