<svg width="46" height="46" viewBox="0 0 46 46" fill="none" xmlns="http://www.w3.org/2000/svg">
<rect x="0.707107" y="23" width="31.5269" height="31.5269" rx="5.5" transform="rotate(-45 0.707107 23)" stroke="#216DB4"/>
<path d="M27.2034 29.7288V27.4407H29C29.5523 27.4407 30 26.993 30 26.4407V17C30 16.4477 29.5523 16 29 16H18.5424C17.9901 16 17.5424 16.4477 17.5424 17V22.3729C17.5424 22.9252 17.9901 23.3729 18.5424 23.3729H19.5763V25.4068L22.8814 23.3729H26.7119C27.2641 23.3729 27.7119 22.9252 27.7119 22.3729V19.5424C27.7119 18.9901 27.2641 18.5424 26.7119 18.5424H16C15.4477 18.5424 15 18.9901 15 19.5424V26.4407C15 26.993 15.4477 27.4407 16 27.4407H23.3898L27.2034 29.7288Z" stroke="#216DB4"/>
</svg>
