<svg width="44" height="44" viewBox="0 0 44 44" fill="none" xmlns="http://www.w3.org/2000/svg">
<path d="M22 13.75C23.5188 13.75 24.75 12.5188 24.75 11C24.75 9.48122 23.5188 8.25 22 8.25C20.4812 8.25 19.25 9.48122 19.25 11C19.25 12.5188 20.4812 13.75 22 13.75Z" fill="white"/>
<path d="M22 24.75C23.5188 24.75 24.75 23.5188 24.75 22C24.75 20.4812 23.5188 19.25 22 19.25C20.4812 19.25 19.25 20.4812 19.25 22C19.25 23.5188 20.4812 24.75 22 24.75Z" fill="white"/>
<path d="M22 35.75C23.5188 35.75 24.75 34.5188 24.75 33C24.75 31.4812 23.5188 30.25 22 30.25C20.4812 30.25 19.25 31.4812 19.25 33C19.25 34.5188 20.4812 35.75 22 35.75Z" fill="white"/>
</svg>
