<svg width="67" height="67" viewBox="0 0 67 67" fill="none" xmlns="http://www.w3.org/2000/svg">
<rect width="67" height="67" rx="33.5" fill="white"/>
<path fill-rule="evenodd" clip-rule="evenodd" d="M39.4716 16.1815L38.0687 23.5126L36.6831 30.7529L40.6737 31.5165L44.0761 32.1676L41.811 34.7886L32.5688 45.4833L27.6883 51.1307L29.0912 43.7996L30.4767 36.5594L26.4861 35.7957L23.0838 35.1446L25.3488 32.5236L34.5911 21.829L39.4716 16.1815ZM30.8526 34.595L32.817 34.9709L32.4411 36.9353L31.8073 40.2468L31.0555 44.1755L33.671 41.1491L38.7878 35.2282L40.2978 33.4809L38.0296 33.0468L36.3072 32.7172L34.3429 32.3413L34.7188 30.3769L35.3525 27.0654L36.1043 23.1367L33.4889 26.1631L28.3721 32.084L26.862 33.8314L29.1303 34.2654L30.8526 34.595Z" fill="#216DB4"/>
</svg>
