<svg width="22" height="23" viewBox="0 0 22 23" fill="none" xmlns="http://www.w3.org/2000/svg">
<g filter="url(#filter0_d_1285_3860)">
<path d="M7.70028 12.1303L7.92915 12.2448C8.88288 12.817 9.95097 13.084 11.0191 13.084C14.376 13.084 17.1226 10.3374 17.1226 6.98047C17.1226 5.37832 16.4741 3.81428 15.3297 2.66985C14.1853 1.52543 12.6594 0.876953 11.0191 0.876953C7.66217 0.876953 4.91553 3.62354 4.9537 7.01865C4.9537 8.16302 5.29702 9.26933 5.86921 10.223L6.02179 10.4519L5.41148 12.7026L7.70028 12.1303Z" fill="#00E676"/>
<path d="M15.9782 2.05994C14.6812 0.724817 12.8883 0 11.0572 0C7.16625 0 4.03817 3.16619 4.07629 7.01903C4.07629 8.23975 4.41961 9.42235 4.99185 10.4904L4 14.1144L7.70026 13.1607C8.73023 13.733 9.8746 14 11.0191 14C14.8719 14 18 10.8338 18 6.98097C18 5.11172 17.2752 3.35694 15.9782 2.05994H15.9782ZM11.0572 12.8175C10.0272 12.8175 8.99727 12.5505 8.11987 12.0164L7.89101 11.9019L5.6785 12.4741L6.25068 10.2998L6.09811 10.0709C4.41961 7.36246 5.22072 3.77655 7.9673 2.09805C10.7139 0.419611 14.2616 1.22072 15.9401 3.9673C17.6185 6.71388 16.8174 10.2616 14.0709 11.9401C13.1934 12.5122 12.1253 12.8174 11.0572 12.8174V12.8175ZM14.4141 8.58318L13.9945 8.39243C13.9945 8.39243 13.3842 8.1254 13.0027 7.93465C12.9646 7.93465 12.9264 7.89648 12.8883 7.89648C12.7738 7.89648 12.6975 7.93465 12.6212 7.97282C12.6212 7.97282 12.5831 8.01094 12.0491 8.62129C12.0109 8.69758 11.9346 8.73575 11.8583 8.73575H11.8201C11.782 8.73575 11.7057 8.69758 11.6676 8.65947L11.4768 8.58318C11.0572 8.39243 10.6758 8.16351 10.3706 7.85836C10.2943 7.78207 10.1798 7.70579 10.1035 7.6295C9.83649 7.36246 9.56945 7.05726 9.37876 6.71393L9.34059 6.63765C9.30247 6.59947 9.30247 6.56136 9.2643 6.48507C9.2643 6.40878 9.2643 6.33249 9.30247 6.29432C9.30247 6.29432 9.45505 6.10358 9.56945 5.98917C9.64579 5.91283 9.68391 5.79842 9.7602 5.72214C9.83649 5.60768 9.87466 5.4551 9.83649 5.34064C9.79837 5.1499 9.34059 4.11993 9.22618 3.89106C9.14984 3.7766 9.07361 3.73849 8.95915 3.70032H8.53954C8.4632 3.70032 8.38696 3.73849 8.31062 3.73849L8.27245 3.7766C8.19616 3.81478 8.11987 3.89106 8.04359 3.92918C7.9673 4.00552 7.92913 4.08176 7.85284 4.1581C7.5858 4.50142 7.43323 4.92103 7.43323 5.34064C7.43323 5.64579 7.50952 5.951 7.62397 6.21804L7.66215 6.33249C8.00547 7.05726 8.4632 7.70579 9.07361 8.27797L9.22618 8.43055C9.34059 8.54501 9.45505 8.62129 9.53134 8.7357C10.3324 9.4224 11.2479 9.9183 12.2779 10.1853C12.3924 10.2234 12.545 10.2234 12.6594 10.2616H13.0409C13.2316 10.2616 13.4605 10.1853 13.6131 10.109C13.7275 10.0328 13.8038 10.0328 13.8801 9.95647L13.9564 9.88013C14.0327 9.80384 14.109 9.76572 14.1853 9.68943C14.2616 9.61315 14.3379 9.53686 14.376 9.46052C14.4523 9.30794 14.4904 9.11719 14.5286 8.9265V8.65947C14.5286 8.65947 14.4904 8.62129 14.4141 8.58318Z" fill="white"/>
</g>
<defs>
<filter id="filter0_d_1285_3860" x="0" y="0" width="22" height="22.1143" filterUnits="userSpaceOnUse" color-interpolation-filters="sRGB">
<feFlood flood-opacity="0" result="BackgroundImageFix"/>
<feColorMatrix in="SourceAlpha" type="matrix" values="0 0 0 0 0 0 0 0 0 0 0 0 0 0 0 0 0 0 127 0" result="hardAlpha"/>
<feOffset dy="4"/>
<feGaussianBlur stdDeviation="2"/>
<feComposite in2="hardAlpha" operator="out"/>
<feColorMatrix type="matrix" values="0 0 0 0 0 0 0 0 0 0 0 0 0 0 0 0 0 0 0.25 0"/>
<feBlend mode="normal" in2="BackgroundImageFix" result="effect1_dropShadow_1285_3860"/>
<feBlend mode="normal" in="SourceGraphic" in2="effect1_dropShadow_1285_3860" result="shape"/>
</filter>
</defs>
</svg>
