<svg width="16" height="18" viewBox="0 0 16 18" fill="none" xmlns="http://www.w3.org/2000/svg">
<path d="M16 3.78947C16 3.99573 15.9242 4.19481 15.7872 4.34895C15.6501 4.50308 15.4613 4.60155 15.2564 4.62568L15.1579 4.63158H14.4463L13.4097 15.1747C13.3532 15.7468 13.086 16.2775 12.66 16.6635C12.234 17.0495 11.6797 17.2632 11.1048 17.2632H4.89516C4.32029 17.2632 3.76596 17.0495 3.33996 16.6635C2.91396 16.2775 2.64676 15.7468 2.59032 15.1747L1.55368 4.63158H0.842105C0.618765 4.63158 0.404572 4.54286 0.246647 4.38493C0.0887215 4.22701 0 4.01281 0 3.78947C0 3.56613 0.0887215 3.35194 0.246647 3.19402C0.404572 3.03609 0.618765 2.94737 0.842105 2.94737H5.05263C5.05263 2.56031 5.12887 2.17705 5.27699 1.81946C5.42511 1.46187 5.64221 1.13695 5.9159 0.863264C6.18958 0.589576 6.5145 0.372474 6.87209 0.224355C7.22968 0.076236 7.61295 0 8 0C8.38705 0 8.77032 0.076236 9.12791 0.224355C9.4855 0.372474 9.81042 0.589576 10.0841 0.863264C10.3578 1.13695 10.5749 1.46187 10.723 1.81946C10.8711 2.17705 10.9474 2.56031 10.9474 2.94737H15.1579C15.3812 2.94737 15.5954 3.03609 15.7534 3.19402C15.9113 3.35194 16 3.56613 16 3.78947ZM9.89474 6.52632C9.74212 6.52632 9.59466 6.58159 9.47964 6.68191C9.36462 6.78222 9.28981 6.9208 9.26905 7.072L9.26316 7.1579V13.0526L9.26905 13.1385C9.28985 13.2897 9.36468 13.4282 9.47969 13.5285C9.59471 13.6288 9.74214 13.684 9.89474 13.684C10.0473 13.684 10.1948 13.6288 10.3098 13.5285C10.4248 13.4282 10.4996 13.2897 10.5204 13.1385L10.5263 13.0526V7.1579L10.5204 7.072C10.4997 6.9208 10.4249 6.78222 10.3098 6.68191C10.1948 6.58159 10.0474 6.52632 9.89474 6.52632ZM6.10526 6.52632C5.95264 6.52632 5.80519 6.58159 5.69016 6.68191C5.57514 6.78222 5.50034 6.9208 5.47958 7.072L5.47368 7.1579V13.0526L5.47958 13.1385C5.50038 13.2897 5.5752 13.4282 5.69022 13.5285C5.80524 13.6288 5.95267 13.684 6.10526 13.684C6.25786 13.684 6.40529 13.6288 6.52031 13.5285C6.63532 13.4282 6.71015 13.2897 6.73095 13.1385L6.73684 13.0526V7.1579L6.73095 7.072C6.71019 6.9208 6.63538 6.78222 6.52036 6.68191C6.40534 6.58159 6.25788 6.52632 6.10526 6.52632ZM8 1.68421C7.66499 1.68421 7.3437 1.81729 7.10681 2.05418C6.86992 2.29107 6.73684 2.61236 6.73684 2.94737H9.26316C9.26316 2.61236 9.13008 2.29107 8.89319 2.05418C8.6563 1.81729 8.33501 1.68421 8 1.68421Z" fill="#5E5E5E"/>
</svg>
